<svg width="16" height="16" viewBox="0 0 16 16" fill="none" xmlns="http://www.w3.org/2000/svg">
<path fill-rule="evenodd" clip-rule="evenodd" d="M8.11387 0C5.90827 0 4.11387 1.7944 4.11387 4V6.4H3.31387C2.43147 6.4 1.71387 7.1176 1.71387 8V14.4C1.71387 15.2824 2.43147 16 3.31387 16H12.9139C13.7963 16 14.5139 15.2824 14.5139 14.4V8C14.5139 7.1176 13.7963 6.4 12.9139 6.4H12.1139V4C12.1139 1.7944 10.3195 0 8.11387 0ZM12.9139 8L12.9155 14.4H3.31385V8H12.9139ZM5.71387 6.40006V4.00006C5.71387 2.67686 6.79067 1.60006 8.11387 1.60006C9.43707 1.60006 10.5139 2.67686 10.5139 4.00006V6.40006H5.71387Z" fill="#6C757D"/>
</svg>
